<?xml version="1.0" encoding="UTF-8"?>
<svg width="11px" height="12px" viewBox="0 0 11 12" version="1.1" xmlns="http://www.w3.org/2000/svg" xmlns:xlink="http://www.w3.org/1999/xlink">
    <!-- Generator: Sketch 42 (36781) - http://www.bohemiancoding.com/sketch -->
    <title>Group 3</title>
    <desc>Created with Sketch.</desc>
    <defs></defs>
    <g id="Page-1" stroke="none" stroke-width="1" fill="none" fill-rule="evenodd">
        <g id="Tracks@2" transform="translate(-951.000000, -951.000000)" fill="#cccccc">
            <g id="Group-4" transform="translate(776.000000, 942.000000)">
                <g id="Group-3" transform="translate(175.000000, 9.000000)">
                    <polygon id="Path-3" points="0 0 0 11.3417978 8.65368733 5.6708989"></polygon>
                    <rect id="Rectangle-9" x="8.55555556" y="0" width="1.83333333" height="10.8"></rect>
                </g>
            </g>
        </g>
    </g>
</svg>
